R4MS Workshop 2 - Final Exercise
…
Housekeeping

Packages

Load files

Main dataset

The catch data is split across 4 tabs in one excel file Load indivudally

Inspect individual tabs

Here we are looking for anomalies between workbooks and any variable naming issues

# A tibble: 104 × 4
   site       date                species       count
   <chr>      <dttm>              <chr>         <dbl>
 1 Lower_ross 2026-05-01 00:00:00 barramundi        6
 2 Lower_ross 2026-05-01 00:00:00 MANGROVE JACK     3
 3 Lower_ross 2026-05-01 00:00:00 bream             4
 4 Lower_ross 2026-05-01 00:00:00 flathead          2
 5 Lower_ross 2026-05-02 00:00:00 barramundi        1
 6 Lower_ross 2026-05-02 00:00:00 MANGROVE JACK     1
 7 Lower_ross 2026-05-02 00:00:00 bream             3
 8 Lower_ross 2026-05-02 00:00:00 flathead          3
 9 Lower_ross 2026-05-03 00:00:00 MANGROVE JACK     2
10 Lower_ross 2026-05-03 00:00:00 flathead          3
# ℹ 94 more rows

# A tibble: 106 × 4
   site     date                species       count
   <chr>    <dttm>              <chr>         <dbl>
 1 Mid_Ross 2026-05-01 00:00:00 barramundi        4
 2 Mid_Ross 2026-05-01 00:00:00 MANGROVE JACK     2
 3 Mid_Ross 2026-05-01 00:00:00 bream             2
 4 Mid_Ross 2026-05-01 00:00:00 flathead          3
 5 Mid_Ross 2026-05-02 00:00:00 MANGROVE JACK     1
 6 Mid_Ross 2026-05-02 00:00:00 bream             2
 7 Mid_Ross 2026-05-02 00:00:00 flathead          3
 8 Mid_Ross 2026-05-03 00:00:00 barramundi        3
 9 Mid_Ross 2026-05-03 00:00:00 MANGROVE JACK     2
10 Mid_Ross 2026-05-03 00:00:00 bream             1
# ℹ 96 more rows

# A tibble: 107 × 4
   site       date                species       count
   <chr>      <dttm>              <chr>         <dbl>
 1 ROSS MOUTH 2026-05-01 00:00:00 barramundi        3
 2 ROSS MOUTH 2026-05-01 00:00:00 MANGROVE JACK     2
 3 ROSS MOUTH 2026-05-01 00:00:00 flathead          9
 4 ROSS MOUTH 2026-05-02 00:00:00 MANGROVE JACK     1
 5 ROSS MOUTH 2026-05-02 00:00:00 bream             3
 6 ROSS MOUTH 2026-05-02 00:00:00 flathead          4
 7 ROSS MOUTH 2026-05-03 00:00:00 barramundi        1
 8 ROSS MOUTH 2026-05-03 00:00:00 MANGROVE JACK     1
 9 ROSS MOUTH 2026-05-03 00:00:00 bream             2
10 ROSS MOUTH 2026-05-03 00:00:00 flathead          7
# ℹ 97 more rows

# A tibble: 110 × 4
   site       date                species       count
   <chr>      <dttm>              <chr>         <dbl>
 1 Upper Ross 2026-05-01 00:00:00 barramundi        5
 2 Upper Ross 2026-05-01 00:00:00 bream             2
 3 Upper Ross 2026-05-01 00:00:00 flathead          6
 4 Upper Ross 2026-05-02 00:00:00 barramundi        8
 5 Upper Ross 2026-05-02 00:00:00 MANGROVE JACK     1
 6 Upper Ross 2026-05-02 00:00:00 bream             2
 7 Upper Ross 2026-05-02 00:00:00 flathead          4
 8 Upper Ross 2026-05-03 00:00:00 barramundi        4
 9 Upper Ross 2026-05-03 00:00:00 bream             2
10 Upper Ross 2026-05-04 00:00:00 barramundi        5
# ℹ 100 more rows

We definitely have var naming issues, but they look to be the same. Will check again once we have combined together # Bind rows together

Preliminary checks

# A tibble: 427 × 4
   site       date                species       count
   <chr>      <dttm>              <chr>         <dbl>
 1 Lower_ross 2026-05-01 00:00:00 barramundi        6
 2 Lower_ross 2026-05-01 00:00:00 MANGROVE JACK     3
 3 Lower_ross 2026-05-01 00:00:00 bream             4
 4 Lower_ross 2026-05-01 00:00:00 flathead          2
 5 Lower_ross 2026-05-02 00:00:00 barramundi        1
 6 Lower_ross 2026-05-02 00:00:00 MANGROVE JACK     1
 7 Lower_ross 2026-05-02 00:00:00 bream             3
 8 Lower_ross 2026-05-02 00:00:00 flathead          3
 9 Lower_ross 2026-05-03 00:00:00 MANGROVE JACK     2
10 Lower_ross 2026-05-03 00:00:00 flathead          3
# ℹ 417 more rows
…
